%YAML 1.1
%TAG !u! tag:unity3d.com,2011:
--- !u!1011 &101100000
AvatarMask:
  m_ObjectHideFlags: 0
  m_PrefabParentObject: {fileID: 0}
  m_PrefabInternal: {fileID: 0}
  m_Name: face only mask
  m_Mask: 00000000000000000100000000000000000000000000000000000000000000000000000000000000000000000000000000000000
  m_Elements:
  - m_Path: 
    m_Weight: 1
  - m_Path: Character1_Reference
    m_Weight: 0
  - m_Path: Character1_Reference/Character1_Hips
    m_Weight: 0
  - m_Path: Character1_Reference/Character1_Hips/Character1_LeftUpLeg
    m_Weight: 0
  - m_Path: Character1_Reference/Character1_Hips/Character1_LeftUpLeg/Character1_LeftLeg
    m_Weight: 0
  - m_Path: Character1_Reference/Character1_Hips/Character1_LeftUpLeg/Character1_LeftLeg/Character1_LeftFoot
    m_Weight: 0
  - m_Path: Character1_Reference/Character1_Hips/Character1_LeftUpLeg/Character1_LeftLeg/Character1_LeftFoot/Character1_LeftToeBase
    m_Weight: 0
  - m_Path: Character1_Reference/Character1_Hips/Character1_RightUpLeg
    m_Weight: 0
  - m_Path: Character1_Reference/Character1_Hips/Character1_RightUpLeg/Character1_RightLeg
    m_Weight: 0
  - m_Path: Character1_Reference/Character1_Hips/Character1_RightUpLeg/Character1_RightLeg/Character1_RightFoot
    m_Weight: 0
  - m_Path: Character1_Reference/Character1_Hips/Character1_RightUpLeg/Character1_RightLeg/Character1_RightFoot/Character1_RightToeBase
    m_Weight: 0
  - m_Path: Character1_Reference/Character1_Hips/Character1_Spine
    m_Weight: 0
  - m_Path: Character1_Reference/Character1_Hips/Character1_Spine/Character1_Spine1
    m_Weight: 0
  - m_Path: Character1_Reference/Character1_Hips/Character1_Spine/Character1_Spine1/Character1_Spine2
    m_Weight: 0
  - m_Path: Character1_Reference/Character1_Hips/Character1_Spine/Character1_Spine1/Character1_Spine2/Character1_LeftShoulder
    m_Weight: 0
  - m_Path: Character1_Reference/Character1_Hips/Character1_Spine/Character1_Spine1/Character1_Spine2/Character1_LeftShoulder/Character1_LeftArm
    m_Weight: 0
  - m_Path: Character1_Reference/Character1_Hips/Character1_Spine/Character1_Spine1/Character1_Spine2/Character1_LeftShoulder/Character1_LeftArm/Character1_LeftForeArm
    m_Weight: 0
  - m_Path: Character1_Reference/Character1_Hips/Character1_Spine/Character1_Spine1/Character1_Spine2/Character1_LeftShoulder/Character1_LeftArm/Character1_LeftForeArm/Character1_LeftHand
    m_Weight: 0
  - m_Path: Character1_Reference/Character1_Hips/Character1_Spine/Character1_Spine1/Character1_Spine2/Character1_LeftShoulder/Character1_LeftArm/Character1_LeftForeArm/Character1_LeftHand/Character1_LeftHandIndex1
    m_Weight: 0
  - m_Path: Character1_Reference/Character1_Hips/Character1_Spine/Character1_Spine1/Character1_Spine2/Character1_LeftShoulder/Character1_LeftArm/Character1_LeftForeArm/Character1_LeftHand/Character1_LeftHandIndex1/Character1_LeftHandIndex2
    m_Weight: 0
  - m_Path: Character1_Reference/Character1_Hips/Character1_Spine/Character1_Spine1/Character1_Spine2/Character1_LeftShoulder/Character1_LeftArm/Character1_LeftForeArm/Character1_LeftHand/Character1_LeftHandIndex1/Character1_LeftHandIndex2/Character1_LeftHandIndex3
    m_Weight: 0
  - m_Path: Character1_Reference/Character1_Hips/Character1_Spine/Character1_Spine1/Character1_Spine2/Character1_LeftShoulder/Character1_LeftArm/Character1_LeftForeArm/Character1_LeftHand/Character1_LeftHandIndex1/Character1_LeftHandIndex2/Character1_LeftHandIndex3/Character1_LeftHandIndex4
    m_Weight: 0
  - m_Path: Character1_Reference/Character1_Hips/Character1_Spine/Character1_Spine1/Character1_Spine2/Character1_LeftShoulder/Character1_LeftArm/Character1_LeftForeArm/Character1_LeftHand/Character1_LeftHandMiddle1
    m_Weight: 0
  - m_Path: Character1_Reference/Character1_Hips/Character1_Spine/Character1_Spine1/Character1_Spine2/Character1_LeftShoulder/Character1_LeftArm/Character1_LeftForeArm/Character1_LeftHand/Character1_LeftHandMiddle1/Character1_LeftHandMiddle2
    m_Weight: 0
  - m_Path: Character1_Reference/Character1_Hips/Character1_Spine/Character1_Spine1/Character1_Spine2/Character1_LeftShoulder/Character1_LeftArm/Character1_LeftForeArm/Character1_LeftHand/Character1_LeftHandMiddle1/Character1_LeftHandMiddle2/Character1_LeftHandMiddle3
    m_Weight: 0
  - m_Path: Character1_Reference/Character1_Hips/Character1_Spine/Character1_Spine1/Character1_Spine2/Character1_LeftShoulder/Character1_LeftArm/Character1_LeftForeArm/Character1_LeftHand/Character1_LeftHandMiddle1/Character1_LeftHandMiddle2/Character1_LeftHandMiddle3/Character1_LeftHandMiddle4
    m_Weight: 0
  - m_Path: Character1_Reference/Character1_Hips/Character1_Spine/Character1_Spine1/Character1_Spine2/Character1_LeftShoulder/Character1_LeftArm/Character1_LeftForeArm/Character1_LeftHand/Character1_LeftHandPinky1
    m_Weight: 0
  - m_Path: Character1_Reference/Character1_Hips/Character1_Spine/Character1_Spine1/Character1_Spine2/Character1_LeftShoulder/Character1_LeftArm/Character1_LeftForeArm/Character1_LeftHand/Character1_LeftHandPinky1/Character1_LeftHandPinky2
    m_Weight: 0
  - m_Path: Character1_Reference/Character1_Hips/Character1_Spine/Character1_Spine1/Character1_Spine2/Character1_LeftShoulder/Character1_LeftArm/Character1_LeftForeArm/Character1_LeftHand/Character1_LeftHandPinky1/Character1_LeftHandPinky2/Character1_LeftHandPinky3
    m_Weight: 0
  - m_Path: Character1_Reference/Character1_Hips/Character1_Spine/Character1_Spine1/Character1_Spine2/Character1_LeftShoulder/Character1_LeftArm/Character1_LeftForeArm/Character1_LeftHand/Character1_LeftHandPinky1/Character1_LeftHandPinky2/Character1_LeftHandPinky3/Character1_LeftHandPinky4
    m_Weight: 0
  - m_Path: Character1_Reference/Character1_Hips/Character1_Spine/Character1_Spine1/Character1_Spine2/Character1_LeftShoulder/Character1_LeftArm/Character1_LeftForeArm/Character1_LeftHand/Character1_LeftHandRing1
    m_Weight: 0
  - m_Path: Character1_Reference/Character1_Hips/Character1_Spine/Character1_Spine1/Character1_Spine2/Character1_LeftShoulder/Character1_LeftArm/Character1_LeftForeArm/Character1_LeftHand/Character1_LeftHandRing1/Character1_LeftHandRing2
    m_Weight: 0
  - m_Path: Character1_Reference/Character1_Hips/Character1_Spine/Character1_Spine1/Character1_Spine2/Character1_LeftShoulder/Character1_LeftArm/Character1_LeftForeArm/Character1_LeftHand/Character1_LeftHandRing1/Character1_LeftHandRing2/Character1_LeftHandRing3
    m_Weight: 0
  - m_Path: Character1_Reference/Character1_Hips/Character1_Spine/Character1_Spine1/Character1_Spine2/Character1_LeftShoulder/Character1_LeftArm/Character1_LeftForeArm/Character1_LeftHand/Character1_LeftHandRing1/Character1_LeftHandRing2/Character1_LeftHandRing3/Character1_LeftHandRing4
    m_Weight: 0
  - m_Path: Character1_Reference/Character1_Hips/Character1_Spine/Character1_Spine1/Character1_Spine2/Character1_LeftShoulder/Character1_LeftArm/Character1_LeftForeArm/Character1_LeftHand/Character1_LeftHandThumb1
    m_Weight: 0
  - m_Path: Character1_Reference/Character1_Hips/Character1_Spine/Character1_Spine1/Character1_Spine2/Character1_LeftShoulder/Character1_LeftArm/Character1_LeftForeArm/Character1_LeftHand/Character1_LeftHandThumb1/Character1_LeftHandThumb2
    m_Weight: 0
  - m_Path: Character1_Reference/Character1_Hips/Character1_Spine/Character1_Spine1/Character1_Spine2/Character1_LeftShoulder/Character1_LeftArm/Character1_LeftForeArm/Character1_LeftHand/Character1_LeftHandThumb1/Character1_LeftHandThumb2/Character1_LeftHandThumb3
    m_Weight: 0
  - m_Path: Character1_Reference/Character1_Hips/Character1_Spine/Character1_Spine1/Character1_Spine2/Character1_LeftShoulder/Character1_LeftArm/Character1_LeftForeArm/Character1_LeftHand/Character1_LeftHandThumb1/Character1_LeftHandThumb2/Character1_LeftHandThumb3/Character1_LeftHandThumb4
    m_Weight: 0
  - m_Path: Character1_Reference/Character1_Hips/Character1_Spine/Character1_Spine1/Character1_Spine2/Character1_LeftShoulder/Character1_LeftArm/Character1_LeftForeArm/J_L_Sode_A00
    m_Weight: 0
  - m_Path: Character1_Reference/Character1_Hips/Character1_Spine/Character1_Spine1/Character1_Spine2/Character1_LeftShoulder/Character1_LeftArm/Character1_LeftForeArm/J_L_Sode_A00/J_L_Sode_A01
    m_Weight: 0
  - m_Path: Character1_Reference/Character1_Hips/Character1_Spine/Character1_Spine1/Character1_Spine2/Character1_LeftShoulder/Character1_LeftArm/Character1_LeftForeArm/J_L_Sode_B00
    m_Weight: 0
  - m_Path: Character1_Reference/Character1_Hips/Character1_Spine/Character1_Spine1/Character1_Spine2/Character1_LeftShoulder/Character1_LeftArm/Character1_LeftForeArm/J_L_Sode_B00/J_L_Sode_B01
    m_Weight: 0
  - m_Path: Character1_Reference/Character1_Hips/Character1_Spine/Character1_Spine1/Character1_Spine2/Character1_LeftShoulder/Character1_LeftArm/Character1_LeftForeArm/J_L_Sode_C00
    m_Weight: 0
  - m_Path: Character1_Reference/Character1_Hips/Character1_Spine/Character1_Spine1/Character1_Spine2/Character1_LeftShoulder/Character1_LeftArm/Character1_LeftForeArm/J_L_Sode_C00/J_L_Sode_C01
    m_Weight: 0
  - m_Path: Character1_Reference/Character1_Hips/Character1_Spine/Character1_Spine1/Character1_Spine2/Character1_LeftShoulder/Character1_LeftArm/Character1_LeftForeArm/J_L_Sode_D00
    m_Weight: 0
  - m_Path: Character1_Reference/Character1_Hips/Character1_Spine/Character1_Spine1/Character1_Spine2/Character1_LeftShoulder/Character1_LeftArm/Character1_LeftForeArm/J_L_Sode_D00/J_L_Sode_D01
    m_Weight: 0
  - m_Path: Character1_Reference/Character1_Hips/Character1_Spine/Character1_Spine1/Character1_Spine2/Character1_Neck
    m_Weight: 0
  - m_Path: Character1_Reference/Character1_Hips/Character1_Spine/Character1_Spine1/Character1_Spine2/Character1_Neck/Character1_Head
    m_Weight: 0
  - m_Path: Character1_Reference/Character1_Hips/Character1_Spine/Character1_Spine1/Character1_Spine2/Character1_Neck/Character1_Head/BLW_DEF
    m_Weight: 1
  - m_Path: Character1_Reference/Character1_Hips/Character1_Spine/Character1_Spine1/Character1_Spine2/Character1_Neck/Character1_Head/eye_base_old
    m_Weight: 0
  - m_Path: Character1_Reference/Character1_Hips/Character1_Spine/Character1_Spine1/Character1_Spine2/Character1_Neck/Character1_Head/EYE_DEF
    m_Weight: 1
  - m_Path: Character1_Reference/Character1_Hips/Character1_Spine/Character1_Spine1/Character1_Spine2/Character1_Neck/Character1_Head/EYE_DEF/EL_DEF
    m_Weight: 1
  - m_Path: Character1_Reference/Character1_Hips/Character1_Spine/Character1_Spine1/Character1_Spine2/Character1_Neck/Character1_Head/eye_L_old
    m_Weight: 0
  - m_Path: Character1_Reference/Character1_Hips/Character1_Spine/Character1_Spine1/Character1_Spine2/Character1_Neck/Character1_Head/eye_R_old
    m_Weight: 0
  - m_Path: Character1_Reference/Character1_Hips/Character1_Spine/Character1_Spine1/Character1_Spine2/Character1_Neck/Character1_Head/head_back
    m_Weight: 0
  - m_Path: Character1_Reference/Character1_Hips/Character1_Spine/Character1_Spine1/Character1_Spine2/Character1_Neck/Character1_Head/J_L_HairFront_00
    m_Weight: 0
  - m_Path: Character1_Reference/Character1_Hips/Character1_Spine/Character1_Spine1/Character1_Spine2/Character1_Neck/Character1_Head/J_L_HairFront_00/J_L_HairFront_01
    m_Weight: 0
  - m_Path: Character1_Reference/Character1_Hips/Character1_Spine/Character1_Spine1/Character1_Spine2/Character1_Neck/Character1_Head/J_L_HairSide_00
    m_Weight: 0
  - m_Path: Character1_Reference/Character1_Hips/Character1_Spine/Character1_Spine1/Character1_Spine2/Character1_Neck/Character1_Head/J_L_HairSide_00/J_L_HairSide_01
    m_Weight: 0
  - m_Path: Character1_Reference/Character1_Hips/Character1_Spine/Character1_Spine1/Character1_Spine2/Character1_Neck/Character1_Head/J_L_HairSide_00/J_L_HairSide_01/J_L_HairSide_02
    m_Weight: 0
  - m_Path: Character1_Reference/Character1_Hips/Character1_Spine/Character1_Spine1/Character1_Spine2/Character1_Neck/Character1_Head/J_L_HairTail_00
    m_Weight: 0
  - m_Path: Character1_Reference/Character1_Hips/Character1_Spine/Character1_Spine1/Character1_Spine2/Character1_Neck/Character1_Head/J_L_HairTail_00/J_L_HairTail_01
    m_Weight: 0
  - m_Path: Character1_Reference/Character1_Hips/Character1_Spine/Character1_Spine1/Character1_Spine2/Character1_Neck/Character1_Head/J_L_HairTail_00/J_L_HairTail_01/J_L_HairTail_02
    m_Weight: 0
  - m_Path: Character1_Reference/Character1_Hips/Character1_Spine/Character1_Spine1/Character1_Spine2/Character1_Neck/Character1_Head/J_L_HairTail_00/J_L_HairTail_01/J_L_HairTail_02/J_L_HairTail_03
    m_Weight: 0
  - m_Path: Character1_Reference/Character1_Hips/Character1_Spine/Character1_Spine1/Character1_Spine2/Character1_Neck/Character1_Head/J_L_HairTail_00/J_L_HairTail_01/J_L_HairTail_02/J_L_HairTail_03/J_L_HairTail_04
    m_Weight: 0
  - m_Path: Character1_Reference/Character1_Hips/Character1_Spine/Character1_Spine1/Character1_Spine2/Character1_Neck/Character1_Head/J_L_HairTail_00/J_L_HairTail_01/J_L_HairTail_02/J_L_HairTail_03/J_L_HairTail_04/J_L_HairTail_05
    m_Weight: 0
  - m_Path: Character1_Reference/Character1_Hips/Character1_Spine/Character1_Spine1/Character1_Spine2/Character1_Neck/Character1_Head/J_L_HairTail_00/J_L_HairTail_01/J_L_HairTail_02/J_L_HairTail_03/J_L_HairTail_04/J_L_HairTail_05/J_L_HairTail_06
    m_Weight: 0
  - m_Path: Character1_Reference/Character1_Hips/Character1_Spine/Character1_Spine1/Character1_Spine2/Character1_Neck/Character1_Head/J_L_HeadRibbon_00
    m_Weight: 0
  - m_Path: Character1_Reference/Character1_Hips/Character1_Spine/Character1_Spine1/Character1_Spine2/Character1_Neck/Character1_Head/J_L_HeadRibbon_00/J_L_HeadRibbon_01
    m_Weight: 0
  - m_Path: Character1_Reference/Character1_Hips/Character1_Spine/Character1_Spine1/Character1_Spine2/Character1_Neck/Character1_Head/J_L_HeadRibbon_00/J_L_HeadRibbon_01/J_L_HeadRibbon_02
    m_Weight: 0
  - m_Path: Character1_Reference/Character1_Hips/Character1_Spine/Character1_Spine1/Character1_Spine2/Character1_Neck/Character1_Head/J_R_HairFront_00
    m_Weight: 0
  - m_Path: Character1_Reference/Character1_Hips/Character1_Spine/Character1_Spine1/Character1_Spine2/Character1_Neck/Character1_Head/J_R_HairFront_00/J_R_HairFront_01
    m_Weight: 0
  - m_Path: Character1_Reference/Character1_Hips/Character1_Spine/Character1_Spine1/Character1_Spine2/Character1_Neck/Character1_Head/J_R_HairSide_00
    m_Weight: 0
  - m_Path: Character1_Reference/Character1_Hips/Character1_Spine/Character1_Spine1/Character1_Spine2/Character1_Neck/Character1_Head/J_R_HairSide_00/J_R_HairSide_01
    m_Weight: 0
  - m_Path: Character1_Reference/Character1_Hips/Character1_Spine/Character1_Spine1/Character1_Spine2/Character1_Neck/Character1_Head/J_R_HairSide_00/J_R_HairSide_01/J_R_HairSide_02
    m_Weight: 0
  - m_Path: Character1_Reference/Character1_Hips/Character1_Spine/Character1_Spine1/Character1_Spine2/Character1_Neck/Character1_Head/J_R_HairTail_00
    m_Weight: 0
  - m_Path: Character1_Reference/Character1_Hips/Character1_Spine/Character1_Spine1/Character1_Spine2/Character1_Neck/Character1_Head/J_R_HairTail_00/J_R_HairTail_01
    m_Weight: 0
  - m_Path: Character1_Reference/Character1_Hips/Character1_Spine/Character1_Spine1/Character1_Spine2/Character1_Neck/Character1_Head/J_R_HairTail_00/J_R_HairTail_01/J_R_HairTail_02
    m_Weight: 0
  - m_Path: Character1_Reference/Character1_Hips/Character1_Spine/Character1_Spine1/Character1_Spine2/Character1_Neck/Character1_Head/J_R_HairTail_00/J_R_HairTail_01/J_R_HairTail_02/J_R_HairTail_03
    m_Weight: 0
  - m_Path: Character1_Reference/Character1_Hips/Character1_Spine/Character1_Spine1/Character1_Spine2/Character1_Neck/Character1_Head/J_R_HairTail_00/J_R_HairTail_01/J_R_HairTail_02/J_R_HairTail_03/J_R_HairTail_04
    m_Weight: 0
  - m_Path: Character1_Reference/Character1_Hips/Character1_Spine/Character1_Spine1/Character1_Spine2/Character1_Neck/Character1_Head/J_R_HairTail_00/J_R_HairTail_01/J_R_HairTail_02/J_R_HairTail_03/J_R_HairTail_04/J_R_HairTail_05
    m_Weight: 0
  - m_Path: Character1_Reference/Character1_Hips/Character1_Spine/Character1_Spine1/Character1_Spine2/Character1_Neck/Character1_Head/J_R_HairTail_00/J_R_HairTail_01/J_R_HairTail_02/J_R_HairTail_03/J_R_HairTail_04/J_R_HairTail_05/J_R_HairTail_06
    m_Weight: 0
  - m_Path: Character1_Reference/Character1_Hips/Character1_Spine/Character1_Spine1/Character1_Spine2/Character1_Neck/Character1_Head/J_R_HeadRibbon_00
    m_Weight: 0
  - m_Path: Character1_Reference/Character1_Hips/Character1_Spine/Character1_Spine1/Character1_Spine2/Character1_Neck/Character1_Head/J_R_HeadRibbon_00/J_R_HeadRibbon_01
    m_Weight: 0
  - m_Path: Character1_Reference/Character1_Hips/Character1_Spine/Character1_Spine1/Character1_Spine2/Character1_Neck/Character1_Head/J_R_HeadRibbon_00/J_R_HeadRibbon_01/J_R_HeadRibbon_02
    m_Weight: 0
  - m_Path: Character1_Reference/Character1_Hips/Character1_Spine/Character1_Spine1/Character1_Spine2/Character1_Neck/Character1_Head/MTH_DEF
    m_Weight: 1
  - m_Path: Character1_Reference/Character1_Hips/Character1_Spine/Character1_Spine1/Character1_Spine2/Character1_RightShoulder
    m_Weight: 0
  - m_Path: Character1_Reference/Character1_Hips/Character1_Spine/Character1_Spine1/Character1_Spine2/Character1_RightShoulder/Character1_RightArm
    m_Weight: 0
  - m_Path: Character1_Reference/Character1_Hips/Character1_Spine/Character1_Spine1/Character1_Spine2/Character1_RightShoulder/Character1_RightArm/Character1_RightForeArm
    m_Weight: 0
  - m_Path: Character1_Reference/Character1_Hips/Character1_Spine/Character1_Spine1/Character1_Spine2/Character1_RightShoulder/Character1_RightArm/Character1_RightForeArm/Character1_RightHand
    m_Weight: 0
  - m_Path: Character1_Reference/Character1_Hips/Character1_Spine/Character1_Spine1/Character1_Spine2/Character1_RightShoulder/Character1_RightArm/Character1_RightForeArm/Character1_RightHand/Character1_RightHandIndex1
    m_Weight: 0
  - m_Path: Character1_Reference/Character1_Hips/Character1_Spine/Character1_Spine1/Character1_Spine2/Character1_RightShoulder/Character1_RightArm/Character1_RightForeArm/Character1_RightHand/Character1_RightHandIndex1/Character1_RightHandIndex2
    m_Weight: 0
  - m_Path: Character1_Reference/Character1_Hips/Character1_Spine/Character1_Spine1/Character1_Spine2/Character1_RightShoulder/Character1_RightArm/Character1_RightForeArm/Character1_RightHand/Character1_RightHandIndex1/Character1_RightHandIndex2/Character1_RightHandIndex3
    m_Weight: 0
  - m_Path: Character1_Reference/Character1_Hips/Character1_Spine/Character1_Spine1/Character1_Spine2/Character1_RightShoulder/Character1_RightArm/Character1_RightForeArm/Character1_RightHand/Character1_RightHandIndex1/Character1_RightHandIndex2/Character1_RightHandIndex3/Character1_RightHandIndex4
    m_Weight: 0
  - m_Path: Character1_Reference/Character1_Hips/Character1_Spine/Character1_Spine1/Character1_Spine2/Character1_RightShoulder/Character1_RightArm/Character1_RightForeArm/Character1_RightHand/Character1_RightHandMiddle1
    m_Weight: 0
  - m_Path: Character1_Reference/Character1_Hips/Character1_Spine/Character1_Spine1/Character1_Spine2/Character1_RightShoulder/Character1_RightArm/Character1_RightForeArm/Character1_RightHand/Character1_RightHandMiddle1/Character1_RightHandMiddle2
    m_Weight: 0
  - m_Path: Character1_Reference/Character1_Hips/Character1_Spine/Character1_Spine1/Character1_Spine2/Character1_RightShoulder/Character1_RightArm/Character1_RightForeArm/Character1_RightHand/Character1_RightHandMiddle1/Character1_RightHandMiddle2/Character1_RightHandMiddle3
    m_Weight: 0
  - m_Path: Character1_Reference/Character1_Hips/Character1_Spine/Character1_Spine1/Character1_Spine2/Character1_RightShoulder/Character1_RightArm/Character1_RightForeArm/Character1_RightHand/Character1_RightHandMiddle1/Character1_RightHandMiddle2/Character1_RightHandMiddle3/Character1_RightHandMiddle4
    m_Weight: 0
  - m_Path: Character1_Reference/Character1_Hips/Character1_Spine/Character1_Spine1/Character1_Spine2/Character1_RightShoulder/Character1_RightArm/Character1_RightForeArm/Character1_RightHand/Character1_RightHandPinky1
    m_Weight: 0
  - m_Path: Character1_Reference/Character1_Hips/Character1_Spine/Character1_Spine1/Character1_Spine2/Character1_RightShoulder/Character1_RightArm/Character1_RightForeArm/Character1_RightHand/Character1_RightHandPinky1/Character1_RightHandPinky2
    m_Weight: 0
  - m_Path: Character1_Reference/Character1_Hips/Character1_Spine/Character1_Spine1/Character1_Spine2/Character1_RightShoulder/Character1_RightArm/Character1_RightForeArm/Character1_RightHand/Character1_RightHandPinky1/Character1_RightHandPinky2/Character1_RightHandPinky3
    m_Weight: 0
  - m_Path: Character1_Reference/Character1_Hips/Character1_Spine/Character1_Spine1/Character1_Spine2/Character1_RightShoulder/Character1_RightArm/Character1_RightForeArm/Character1_RightHand/Character1_RightHandPinky1/Character1_RightHandPinky2/Character1_RightHandPinky3/Character1_RightHandPinky4
    m_Weight: 0
  - m_Path: Character1_Reference/Character1_Hips/Character1_Spine/Character1_Spine1/Character1_Spine2/Character1_RightShoulder/Character1_RightArm/Character1_RightForeArm/Character1_RightHand/Character1_RightHandRing1
    m_Weight: 0
  - m_Path: Character1_Reference/Character1_Hips/Character1_Spine/Character1_Spine1/Character1_Spine2/Character1_RightShoulder/Character1_RightArm/Character1_RightForeArm/Character1_RightHand/Character1_RightHandRing1/Character1_RightHandRing2
    m_Weight: 0
  - m_Path: Character1_Reference/Character1_Hips/Character1_Spine/Character1_Spine1/Character1_Spine2/Character1_RightShoulder/Character1_RightArm/Character1_RightForeArm/Character1_RightHand/Character1_RightHandRing1/Character1_RightHandRing2/Character1_RightHandRing3
    m_Weight: 0
  - m_Path: Character1_Reference/Character1_Hips/Character1_Spine/Character1_Spine1/Character1_Spine2/Character1_RightShoulder/Character1_RightArm/Character1_RightForeArm/Character1_RightHand/Character1_RightHandRing1/Character1_RightHandRing2/Character1_RightHandRing3/Character1_RightHandRing4
    m_Weight: 0
  - m_Path: Character1_Reference/Character1_Hips/Character1_Spine/Character1_Spine1/Character1_Spine2/Character1_RightShoulder/Character1_RightArm/Character1_RightForeArm/Character1_RightHand/Character1_RightHandThumb1
    m_Weight: 0
  - m_Path: Character1_Reference/Character1_Hips/Character1_Spine/Character1_Spine1/Character1_Spine2/Character1_RightShoulder/Character1_RightArm/Character1_RightForeArm/Character1_RightHand/Character1_RightHandThumb1/Character1_RightHandThumb2
    m_Weight: 0
  - m_Path: Character1_Reference/Character1_Hips/Character1_Spine/Character1_Spine1/Character1_Spine2/Character1_RightShoulder/Character1_RightArm/Character1_RightForeArm/Character1_RightHand/Character1_RightHandThumb1/Character1_RightHandThumb2/Character1_RightHandThumb3
    m_Weight: 0
  - m_Path: Character1_Reference/Character1_Hips/Character1_Spine/Character1_Spine1/Character1_Spine2/Character1_RightShoulder/Character1_RightArm/Character1_RightForeArm/Character1_RightHand/Character1_RightHandThumb1/Character1_RightHandThumb2/Character1_RightHandThumb3/Character1_RightHandThumb4
    m_Weight: 0
  - m_Path: Character1_Reference/Character1_Hips/Character1_Spine/Character1_Spine1/Character1_Spine2/Character1_RightShoulder/Character1_RightArm/Character1_RightForeArm/J_R_Sode_A00
    m_Weight: 0
  - m_Path: Character1_Reference/Character1_Hips/Character1_Spine/Character1_Spine1/Character1_Spine2/Character1_RightShoulder/Character1_RightArm/Character1_RightForeArm/J_R_Sode_A00/J_R_Sode_A01
    m_Weight: 0
  - m_Path: Character1_Reference/Character1_Hips/Character1_Spine/Character1_Spine1/Character1_Spine2/Character1_RightShoulder/Character1_RightArm/Character1_RightForeArm/J_R_Sode_B00
    m_Weight: 0
  - m_Path: Character1_Reference/Character1_Hips/Character1_Spine/Character1_Spine1/Character1_Spine2/Character1_RightShoulder/Character1_RightArm/Character1_RightForeArm/J_R_Sode_B00/J_R_Sode_B01
    m_Weight: 0
  - m_Path: Character1_Reference/Character1_Hips/Character1_Spine/Character1_Spine1/Character1_Spine2/Character1_RightShoulder/Character1_RightArm/Character1_RightForeArm/J_R_Sode_C00
    m_Weight: 0
  - m_Path: Character1_Reference/Character1_Hips/Character1_Spine/Character1_Spine1/Character1_Spine2/Character1_RightShoulder/Character1_RightArm/Character1_RightForeArm/J_R_Sode_C00/J_R_Sode_C01
    m_Weight: 0
  - m_Path: Character1_Reference/Character1_Hips/Character1_Spine/Character1_Spine1/Character1_Spine2/Character1_RightShoulder/Character1_RightArm/Character1_RightForeArm/J_R_Sode_D00
    m_Weight: 0
  - m_Path: Character1_Reference/Character1_Hips/Character1_Spine/Character1_Spine1/Character1_Spine2/Character1_RightShoulder/Character1_RightArm/Character1_RightForeArm/J_R_Sode_D00/J_R_Sode_D01
    m_Weight: 0
  - m_Path: Character1_Reference/Character1_Hips/Character1_Spine/Character1_Spine1/J_Mune_root_00
    m_Weight: 0
  - m_Path: Character1_Reference/Character1_Hips/Character1_Spine/Character1_Spine1/J_Mune_root_00/J_L_Mune_00
    m_Weight: 0
  - m_Path: Character1_Reference/Character1_Hips/Character1_Spine/Character1_Spine1/J_Mune_root_00/J_L_Mune_00/J_L_Mune_01
    m_Weight: 0
  - m_Path: Character1_Reference/Character1_Hips/Character1_Spine/Character1_Spine1/J_Mune_root_00/J_L_Mune_00/J_L_Mune_01/J_L_Mune_02
    m_Weight: 0
  - m_Path: Character1_Reference/Character1_Hips/Character1_Spine/Character1_Spine1/J_Mune_root_00/J_Mune_root_01
    m_Weight: 0
  - m_Path: Character1_Reference/Character1_Hips/Character1_Spine/Character1_Spine1/J_Mune_root_00/J_R_Mune_00
    m_Weight: 0
  - m_Path: Character1_Reference/Character1_Hips/Character1_Spine/Character1_Spine1/J_Mune_root_00/J_R_Mune_00/J_R_Mune_01
    m_Weight: 0
  - m_Path: Character1_Reference/Character1_Hips/Character1_Spine/Character1_Spine1/J_Mune_root_00/J_R_Mune_00/J_R_Mune_01/J_R_Mune_02
    m_Weight: 0
  - m_Path: Character1_Reference/Character1_Hips/Character1_Spine/J_L_SusoSide_00
    m_Weight: 0
  - m_Path: Character1_Reference/Character1_Hips/Character1_Spine/J_L_SusoSide_00/J_L_SusoSide_01
    m_Weight: 0
  - m_Path: Character1_Reference/Character1_Hips/Character1_Spine/J_R_SusoSide_00
    m_Weight: 0
  - m_Path: Character1_Reference/Character1_Hips/Character1_Spine/J_R_SusoSide_00/J_R_SusoSide_01
    m_Weight: 0
  - m_Path: Character1_Reference/Character1_Hips/J_L_Skirt_00
    m_Weight: 0
  - m_Path: Character1_Reference/Character1_Hips/J_L_Skirt_00/J_L_Skirt_01
    m_Weight: 0
  - m_Path: Character1_Reference/Character1_Hips/J_L_Skirt_00/J_L_Skirt_01/J_L_Skirt_02
    m_Weight: 0
  - m_Path: Character1_Reference/Character1_Hips/J_L_Skirt_00/J_L_SusoFront_00
    m_Weight: 0
  - m_Path: Character1_Reference/Character1_Hips/J_L_Skirt_00/J_L_SusoFront_00/J_L_SusoFront_01
    m_Weight: 0
  - m_Path: Character1_Reference/Character1_Hips/J_L_SkirtBack_00
    m_Weight: 0
  - m_Path: Character1_Reference/Character1_Hips/J_L_SkirtBack_00/J_L_SkirtBack_01
    m_Weight: 0
  - m_Path: Character1_Reference/Character1_Hips/J_L_SkirtBack_00/J_L_SkirtBack_01/J_L_SkirtBack_02
    m_Weight: 0
  - m_Path: Character1_Reference/Character1_Hips/J_L_SkirtBack_00/J_L_SusoBack_00
    m_Weight: 0
  - m_Path: Character1_Reference/Character1_Hips/J_L_SkirtBack_00/J_L_SusoBack_00/J_L_SusoBack_01
    m_Weight: 0
  - m_Path: Character1_Reference/Character1_Hips/J_R_Skirt_00
    m_Weight: 0
  - m_Path: Character1_Reference/Character1_Hips/J_R_Skirt_00/J_R_Skirt_01
    m_Weight: 0
  - m_Path: Character1_Reference/Character1_Hips/J_R_Skirt_00/J_R_Skirt_01/J_R_Skirt_02
    m_Weight: 0
  - m_Path: Character1_Reference/Character1_Hips/J_R_Skirt_00/J_R_SusoFront_00
    m_Weight: 0
  - m_Path: Character1_Reference/Character1_Hips/J_R_Skirt_00/J_R_SusoFront_00/J_R_SusoFront_01
    m_Weight: 0
  - m_Path: Character1_Reference/Character1_Hips/J_R_SkirtBack_00
    m_Weight: 0
  - m_Path: Character1_Reference/Character1_Hips/J_R_SkirtBack_00/J_R_SkirtBack_01
    m_Weight: 0
  - m_Path: Character1_Reference/Character1_Hips/J_R_SkirtBack_00/J_R_SkirtBack_01/J_R_SkirtBack_02
    m_Weight: 0
  - m_Path: Character1_Reference/Character1_Hips/J_R_SkirtBack_00/J_R_SusoBack_00
    m_Weight: 0
  - m_Path: Character1_Reference/Character1_Hips/J_R_SkirtBack_00/J_R_SusoBack_00/J_R_SusoBack_01
    m_Weight: 0
  - m_Path: mesh_root
    m_Weight: 0
  - m_Path: mesh_root/button
    m_Weight: 0
  - m_Path: mesh_root/cheek
    m_Weight: 0
  - m_Path: mesh_root/hair_accce
    m_Weight: 0
  - m_Path: mesh_root/hair_front
    m_Weight: 0
  - m_Path: mesh_root/hair_frontside
    m_Weight: 0
  - m_Path: mesh_root/hairband
    m_Weight: 0
  - m_Path: mesh_root/kutu
    m_Weight: 0
  - m_Path: mesh_root/Shirts
    m_Weight: 0
  - m_Path: mesh_root/shirts_sode
    m_Weight: 0
  - m_Path: mesh_root/shirts_sode_BK
    m_Weight: 0
  - m_Path: mesh_root/skin
    m_Weight: 0
  - m_Path: mesh_root/tail
    m_Weight: 0
  - m_Path: mesh_root/tail_bottom
    m_Weight: 0
  - m_Path: mesh_root/uwagi
    m_Weight: 0
  - m_Path: mesh_root/uwagi_BK
    m_Weight: 0
  - m_Path: mesh_root/uwagi_perker
    m_Weight: 0
